0	0.0058378974586944425	0.006874470289104392
1	-0.004111456276285821	0.008537247486567052
2	0.04016011196578461	0.06258112367884296
3	-0.01668246733935871	0.0033945513099485273
4	0.020155023458419807	-0.004594127806562985
5	-0.02147832590321775	0.018952081778579908
6	0.0290994776845464	-0.017187658753005687
